%!PS-Adobe-2.0 EPSF-2.0
%%BoundingBox:  0 0 567 430
%%Title: xscomp.eps: c
%%Creator: ROOT Version 6.14/04
%%CreationDate: Mon Mar 11 16:54:42 2019
%%DocumentNeededResources: ProcSet (FontSetInit)
%%EndComments
%%BeginProlog
80 dict begin
/s {stroke} def /l {lineto} def /m {moveto} def /t {translate} def
/r {rotate} def /rl {roll}  def /R {repeat} def
/d {rlineto} def /rm {rmoveto} def /gr {grestore} def /f {eofill} def
/c {setrgbcolor} def /black {0 setgray} def /sd {setdash} def
/cl {closepath} def /sf {scalefont setfont} def /lw {setlinewidth} def
/box {m dup 0 exch d exch 0 d 0 exch neg d cl} def
/NC{systemdict begin initclip end}def/C{NC box clip newpath}def
/bl {box s} def /bf {gsave box gsave f grestore 1 lw [] 0 sd s grestore} def /Y { 0 exch d} def /X { 0 d} def 
/K {{pop pop 0 moveto} exch kshow} bind def
/ita {/ang 15 def gsave [1 0 ang dup sin exch cos div 1 0 0] concat} def 
/mp {newpath /y exch def /x exch def} def
/side {[w .77 mul w .23 mul] .385 w mul sd w 0 l currentpoint t -144 r} def
/mr {mp x y w2 0 360 arc} def /m24 {mr s} def /m20 {mr f} def
/mb {mp x y w2 add m w2 neg 0 d 0 w neg d w 0 d 0 w d cl} def
/mt {mp x y w2 add m w2 neg w neg d w 0 d cl} def
/w4 {w 4 div} def
/w6 {w 6 div} def
/w8 {w 8 div} def
/m21 {mb f} def /m25 {mb s} def /m22 {mt f} def /m26{mt s} def
/m23 {mp x y w2 sub m w2 w d w neg 0 d cl f} def
/m27 {mp x y w2 add m w3 neg w2 neg d w3 w2 neg d w3 w2 d cl s} def
/m28 {mp x w2 sub y w2 sub w3 add m w3 0 d  0 w3 neg d w3 0 d 0 w3 d w3 0 d  0 w3 d w3 neg 0 d 0 w3 d w3 neg 0 d 0 w3 neg d w3 neg 0 d cl s } def
/m29 {mp gsave x w2 sub y w2 add w3 sub m currentpoint t 4 {side} repeat cl fill gr} def
/m30 {mp gsave x w2 sub y w2 add w3 sub m currentpoint t 4 {side} repeat cl s gr} def
/m31 {mp x y w2 sub m 0 w d x w2 sub y m w 0 d x w2 sub y w2 add m w w neg d x w2 sub y w2 sub m w w d s} def
/m32 {mp x y w2 sub m w2 w d w neg 0 d cl s} def
/m33 {mp x y w2 add m w3 neg w2 neg d w3 w2 neg d w3 w2 d cl f} def
/m34 {mp x w2 sub y w2 sub w3 add m w3 0 d  0 w3 neg d w3 0 d 0 w3 d w3 0 d  0 w3 d w3 neg 0 d 0 w3 d w3 neg 0 d 0 w3 neg d w3 neg 0 d cl f } def
/m35 {mp x y w2 add m w2 neg w2 neg d w2 w2 neg d w2 w2 d w2 neg w2 d x y w2 sub m 0 w d x w2 sub y m w 0 d s} def
/m36 {mb x w2 sub y w2 add m w w neg d x w2 sub y w2 sub m w w d s} def
/m37 {mp x y m w4 neg w2 d w4 neg w2 neg d w2 0 d  w4 neg w2 neg d w2 0 d w4 neg w2 d w2 0 d w4 neg w2 d w4 neg w2 neg d cl s} def
/m38 {mp x w4 sub y w2 add m w4 neg w4 neg d 0 w2 neg d w4 w4 neg d w2 0 d w4 w4 d 0 w2 d w4 neg w4 d w2 neg 0 d x y w2 sub m 0 w d x w2 sub y m w 0 d cl s} def
/m39 {mp x y m w4 neg w2 d w4 neg w2 neg d w2 0 d  w4 neg w2 neg d w2 0 d w4 neg w2 d w2 0 d w4 neg w2 d w4 neg w2 neg d cl f} def
/m40 {mp x y m w4 w2 d w4 w4 neg d w2 neg w4 neg d w2 w4 neg d w4 neg w4 neg d w4 neg w2 d w4 neg w2 neg d w4 neg w4 d w2 w4 d w2 neg w4 d w4 w4 d w4 w2 neg d cl s} def
/m41 {mp x y m w4 w2 d w4 w4 neg d w2 neg w4 neg d w2 w4 neg d w4 neg w4 neg d w4 neg w2 d w4 neg w2 neg d w4 neg w4 d w2 w4 d w2 neg w4 d w4 w4 d w4 w2 neg d cl f} def
/m42 {mp x y w2 add m w8 neg w2 -3 4 div mul d w2 -3 4 div mul w8 neg d w2 3 4 div mul w8 neg d w8 w2 -3 4 div mul d w8 w2 3 4 div mul d w2 3 4 div mul w8 d w2 -3 4 div mul w8 d w8 neg w2 3 4 div mul d cl s} def
/m43 {mp x y w2 add m w8 neg w2 -3 4 div mul d w2 -3 4 div mul w8 neg d w2 3 4 div mul w8 neg d w8 w2 -3 4 div mul d w8 w2 3 4 div mul d w2 3 4 div mul w8 d w2 -3 4 div mul w8 d w8 neg w2 3 4 div mul d cl f} def
/m44 {mp x y m w6 neg w2 d w2 2 3 div mul 0 d w6 neg w2 neg d w2 w6 d 0 w2 -2 3 div mul d w2 neg w6 d w6 w2 neg d w2 -2 3 div mul 0 d w6 w2 d w2 neg w6 neg d 0 w2 2 3 div mul d w2 w6 neg d cl s} def
/m45 {mp x y m w6 neg w2 d w2 2 3 div mul 0 d w6 neg w2 neg d w2 w6 d 0 w2 -2 3 div mul d w2 neg w6 d w6 w2 neg d w2 -2 3 div mul 0 d w6 w2 d w2 neg w6 neg d 0 w2 2 3 div mul d w2 w6 neg d cl f} def
/m46 {mp x y w4 add m w4 neg w4 d w4 neg w4 neg d  w4 w4 neg d w4 neg w4 neg d w4 w4 neg d w4 w4 d w4 w4 neg d w4 w4 d w4 neg w4 d w4 w4 d w4 neg w4 d w4 neg w4 neg d cl s} def
/m47 {mp x y w4 add m w4 neg w4 d w4 neg w4 neg d w4 w4 neg d w4 neg w4 neg d  w4 w4 neg d w4 w4 d w4 w4 neg d w4 w4 d w4 neg w4 d w4 w4 d w4 neg w4 d w4 neg w4 neg d cl f} def
/m48 {mp x y w4 add m w4 neg w4 d w4 neg w4 neg d w4 w4 neg d  w4 neg w4 neg d w4 w4 neg d w4 w4 d w4 w4 neg d w4 w4 d w4 neg w4 d w4 w4 d w4 neg w4 d w4 neg w4 neg d  w4 w4 neg d w4 neg w4 neg d w4 neg w4 d w4 w4 d cl f} def
/m49 {mp x w2 sub w3 add y w2 sub w3 add m  0 w3 neg d w3 0 d 0 w3 d w3 0 d 0 w3 d w3 neg 0 d 0 w3 d w3 neg 0 d 0 w3 neg d w3 neg 0 d 0 w3 neg d w3 0 d 0 w3 d w3 0 d 0 w3 neg d w3 neg 0 d cl f } def
/m2 {mp x y w2 sub m 0 w d x w2 sub y m w 0 d s} def
/m5 {mp x w2 sub y w2 sub m w w d x w2 sub y w2 add m w w neg d s} def
%%IncludeResource: ProcSet (FontSetInit)
%%IncludeResource: font Times-Roman
%%IncludeResource: font Times-Italic
%%IncludeResource: font Times-Bold
%%IncludeResource: font Times-BoldItalic
%%IncludeResource: font Helvetica
%%IncludeResource: font Helvetica-Oblique
%%IncludeResource: font Helvetica-Bold
%%IncludeResource: font Helvetica-BoldOblique
%%IncludeResource: font Courier
%%IncludeResource: font Courier-Oblique
%%IncludeResource: font Courier-Bold
%%IncludeResource: font Courier-BoldOblique
%%IncludeResource: font Symbol
%%IncludeResource: font ZapfDingbats
/reEncode {exch findfont dup length dict begin {1 index /FID eq  {pop pop} {def} ifelse } forall /Encoding exch def currentdict end dup /FontName get exch definefont pop } def [/Times-Bold /Times-Italic /Times-BoldItalic /Helvetica /Helvetica-Oblique
 /Helvetica-Bold /Helvetica-BoldOblique /Courier /Courier-Oblique /Courier-Bold /Courier-BoldOblique /Times-Roman /AvantGarde-Book /AvantGarde-BookOblique /AvantGarde-Demi /AvantGarde-DemiOblique /Bookman-Demi /Bookman-DemiItalic /Bookman-Light
 /Bookman-LightItalic /Helvetica-Narrow /Helvetica-Narrow-Bold /Helvetica-Narrow-BoldOblique /Helvetica-Narrow-Oblique /NewCenturySchlbk-Roman /NewCenturySchlbk-Bold /NewCenturySchlbk-BoldItalic /NewCenturySchlbk-Italic /Palatino-Bold
 /Palatino-BoldItalic /Palatino-Italic /Palatino-Roman ] {ISOLatin1Encoding reEncode } forall
%%EndProlog
%%BeginSetup
%%EndSetup
newpath  gsave  .25 .25 scale  gsave  0 0 t black[  ] 0 sd 3 lw 1 1 1 c 2268 1722 0 0 bf black 1 1 1 c 1444 1267 368 283 bf black 1444 1267 368 283 bl 1 1 1 c 1444 1267 368 283 bf black 1444 1267 368 283 bl 0 0 0.6 c 6 lw 1 1 1 c black 0 0 0.6 c 368
 283 m 1444 X s black 3 lw 368 283 m 1444 X s 517 316 m -33 Y s 617 300 m -17 Y s 717 300 m -17 Y s 816 300 m -17 Y s 916 300 m -17 Y s 1015 316 m -33 Y s 1115 300 m -17 Y s 1215 300 m -17 Y s 1314 300 m -17 Y s 1414 300 m -17 Y s 1514 316 m -33 Y s
 517 316 m -33 Y s 418 300 m -17 Y s 1514 316 m -33 Y s 1613 300 m -17 Y s 1713 300 m -17 Y s
 gsave  2268 1722 0 0 C 491.54 183.95 t 0 r /Times-Roman findfont 96.4986 sf 0 0 m (2) show NC gr 
 gsave  2268 1722 0 0 C 992.126 183.95 t 0 r /Times-Roman findfont 96.4986 sf 0 0 m (3) show NC gr 
 gsave  2268 1722 0 0 C 1486.68 183.95 t 0 r /Times-Roman findfont 96.4986 sf 0 0 m (4) show NC gr 
 gsave  2268 1722 0 0 C 1755.07 81.4207 t 0 r /Times-Roman findfont 114.592 sf 0 0 m (y) show NC gr  368 283 m 1267 Y s 418 283 m -50 X s 393 309 m -25 X s 393 334 m -25 X s 393 359 m -25 X s 393 385 m -25 X s 418 410 m -50 X s 393 435 m -25 X s 393
 461 m -25 X s 393 486 m -25 X s 393 511 m -25 X s 418 537 m -50 X s 393 562 m -25 X s 393 587 m -25 X s 393 613 m -25 X s 393 638 m -25 X s 418 663 m -50 X s 393 689 m -25 X s 393 714 m -25 X s 393 739 m -25 X s 393 765 m -25 X s 418 790 m -50 X s
 393 815 m -25 X s 393 841 m -25 X s 393 866 m -25 X s 393 891 m -25 X s 418 917 m -50 X s 393 942 m -25 X s 393 967 m -25 X s 393 993 m -25 X s 393 1018 m -25 X s 418 1043 m -50 X s 393 1069 m -25 X s 393 1094 m -25 X s 393 1119 m -25 X s 393 1145 m
 -25 X s 418 1170 m -50 X s 393 1195 m -25 X s 393 1220 m -25 X s 393 1246 m -25 X s 393 1271 m -25 X s 418 1296 m -50 X s 393 1322 m -25 X s 393 1347 m -25 X s 393 1372 m -25 X s 393 1398 m -25 X s 418 1423 m -50 X s 393 1448 m -25 X s 393 1474 m
 -25 X s 393 1499 m -25 X s 393 1524 m -25 X s 418 1550 m -50 X s
 gsave  2268 1722 0 0 C 295.527 250.293 t 0 r /Times-Roman findfont 96.4986 sf 0 0 m (0) show NC gr 
 gsave  2268 1722 0 0 C 226.169 373.932 t 0 r /Times-Roman findfont 96.4986 sf 0 0 m (0.5) show NC gr 
 gsave  2268 1722 0 0 C 304.574 500.586 t 0 r /Times-Roman findfont 96.4986 sf 0 0 m (1) show NC gr 
 gsave  2268 1722 0 0 C 226.169 627.241 t 0 r /Times-Roman findfont 96.4986 sf 0 0 m (1.5) show NC gr 
 gsave  2268 1722 0 0 C 295.527 753.895 t 0 r /Times-Roman findfont 96.4986 sf 0 0 m (2) show NC gr 
 gsave  2268 1722 0 0 C 226.169 880.549 t 0 r /Times-Roman findfont 96.4986 sf 0 0 m (2.5) show NC gr 
 gsave  2268 1722 0 0 C 301.558 1010.22 t 0 r /Times-Roman findfont 96.4986 sf 0 0 m (3) show NC gr 
 gsave  2268 1722 0 0 C 226.169 1133.86 t 0 r /Times-Roman findfont 96.4986 sf 0 0 m (3.5) show NC gr 
 gsave  2268 1722 0 0 C 295.527 1260.51 t 0 r /Times-Roman findfont 96.4986 sf 0 0 m (4) show NC gr 
 gsave  2268 1722 0 0 C 226.169 1387.17 t 0 r /Times-Roman findfont 96.4986 sf 0 0 m (4.5) show NC gr 
 gsave  2268 1722 0 0 C 298.542 1513.82 t 0 r /Times-Roman findfont 96.4986 sf 0 0 m (5) show NC gr 
 gsave  2268 1722 0 0 C 144.748 1157.98 t 90 r /Times-Roman findfont 114.592 sf 0 0 m (/dy [mb]) show NC gr 
 gsave  2268 1722 0 0 C 144.748 1088.62 t 90 r /Symbol findfont 114.592 sf 0 0 m (s) show NC gr 
 gsave  2268 1722 0 0 C 144.748 1031.33 t 90 r /Times-Roman findfont 114.592 sf 0 0 m (d) show NC gr  6 lw 630 856 m -113 X s 517 850 m 12 Y s 654 856 m 112 X s 766 850 m 12 Y s 642 868 m 99 Y s 636 967 m 12 X s 642 844 m -99 Y s 636 745 m 12 X s 879
 819 m -113 X s 766 813 m 12 Y s 903 819 m 112 X s 1015 813 m 12 Y s 891 831 m 75 Y s 885 906 m 12 X s 891 807 m -75 Y s 885 732 m 12 X s 1128 807 m -113 X s 1015 801 m 12 Y s 1152 807 m 112 X s 1264 801 m 12 Y s 1140 819 m 71 Y s 1134 890 m 12 X s
 1140 795 m -71 Y s 1134 724 m 12 X s 1377 693 m -113 X s 1264 687 m 12 Y s 1401 693 m 113 X s 1514 687 m 12 Y s 1389 705 m 57 Y s 1383 762 m 12 X s 1389 681 m -58 Y s 1383 623 m 12 X s 1626 520 m -112 X s 1514 514 m 12 Y s 1650 520 m 113 X s 1763
 514 m 12 Y s 1638 532 m 58 Y s 1632 590 m 12 X s 1638 508 m -58 Y s 1632 450 m 12 X s 1 1 1 c black 3 lw /w 24 def /w2 {w 2 div} def /w3 {w 3 div} def 642 856 891 819 1140 807 1389 693 1638 520 5 { m20} R 6 lw 1 0 0 c 639 1052 m -124 X s 515 1046 m
 12 Y s 639 1052 m 125 X s 764 1046 m 12 Y s 639 1052 m 162 Y s 633 1214 m 12 X s 639 1052 m -161 Y s 633 891 m 12 X s 891 943 m -125 X s 766 937 m 12 Y s 891 943 m 124 X s 1015 937 m 12 Y s 891 943 m 116 Y s 885 1059 m 12 X s 891 943 m -117 Y s 885
 826 m 12 X s 1140 861 m -125 X s 1015 855 m 12 Y s 1140 861 m 124 X s 1264 855 m 12 Y s 1140 861 m 100 Y s 1134 961 m 12 X s 1140 861 m -100 Y s 1134 761 m 12 X s 1389 721 m -125 X s 1264 715 m 13 Y s 1389 721 m 125 X s 1514 715 m 13 Y s 1389 721 m
 81 Y s 1383 802 m 12 X s 1389 721 m -80 Y s 1383 641 m 12 X s 1638 563 m -124 X s 1514 557 m 12 Y s 1638 563 m 125 X s 1763 557 m 12 Y s 1638 563 m 73 Y s 1632 636 m 12 X s 1638 563 m -74 Y s 1632 489 m 12 X s 1 1 1 c 1 0 0 c 3 lw 639 1052 891 943
 1140 861 1389 721 1638 563 5 { m24} R 6 lw black 1 1 1 c 567 103 1111 1395 bf black
 gsave  2268 1722 0 0 C 1136.87 1417.32 t 0 r /Times-Roman findfont 81.4207 sf 0 0 m (LHCb Internal) show NC gr 
 gr  gr showpage
end
%%EOF
