%!PS-Adobe-2.0 EPSF-2.0
%%BoundingBox:  0 0 567 430
%%Title: xsnew.eps: c
%%Creator: ROOT Version 6.14/04
%%CreationDate: Mon Mar 11 16:40:45 2019
%%DocumentNeededResources: ProcSet (FontSetInit)
%%EndComments
%%BeginProlog
80 dict begin
/s {stroke} def /l {lineto} def /m {moveto} def /t {translate} def
/r {rotate} def /rl {roll}  def /R {repeat} def
/d {rlineto} def /rm {rmoveto} def /gr {grestore} def /f {eofill} def
/c {setrgbcolor} def /black {0 setgray} def /sd {setdash} def
/cl {closepath} def /sf {scalefont setfont} def /lw {setlinewidth} def
/box {m dup 0 exch d exch 0 d 0 exch neg d cl} def
/NC{systemdict begin initclip end}def/C{NC box clip newpath}def
/bl {box s} def /bf {gsave box gsave f grestore 1 lw [] 0 sd s grestore} def /Y { 0 exch d} def /X { 0 d} def 
/K {{pop pop 0 moveto} exch kshow} bind def
/ita {/ang 15 def gsave [1 0 ang dup sin exch cos div 1 0 0] concat} def 
/mp {newpath /y exch def /x exch def} def
/side {[w .77 mul w .23 mul] .385 w mul sd w 0 l currentpoint t -144 r} def
/mr {mp x y w2 0 360 arc} def /m24 {mr s} def /m20 {mr f} def
/mb {mp x y w2 add m w2 neg 0 d 0 w neg d w 0 d 0 w d cl} def
/mt {mp x y w2 add m w2 neg w neg d w 0 d cl} def
/w4 {w 4 div} def
/w6 {w 6 div} def
/w8 {w 8 div} def
/m21 {mb f} def /m25 {mb s} def /m22 {mt f} def /m26{mt s} def
/m23 {mp x y w2 sub m w2 w d w neg 0 d cl f} def
/m27 {mp x y w2 add m w3 neg w2 neg d w3 w2 neg d w3 w2 d cl s} def
/m28 {mp x w2 sub y w2 sub w3 add m w3 0 d  0 w3 neg d w3 0 d 0 w3 d w3 0 d  0 w3 d w3 neg 0 d 0 w3 d w3 neg 0 d 0 w3 neg d w3 neg 0 d cl s } def
/m29 {mp gsave x w2 sub y w2 add w3 sub m currentpoint t 4 {side} repeat cl fill gr} def
/m30 {mp gsave x w2 sub y w2 add w3 sub m currentpoint t 4 {side} repeat cl s gr} def
/m31 {mp x y w2 sub m 0 w d x w2 sub y m w 0 d x w2 sub y w2 add m w w neg d x w2 sub y w2 sub m w w d s} def
/m32 {mp x y w2 sub m w2 w d w neg 0 d cl s} def
/m33 {mp x y w2 add m w3 neg w2 neg d w3 w2 neg d w3 w2 d cl f} def
/m34 {mp x w2 sub y w2 sub w3 add m w3 0 d  0 w3 neg d w3 0 d 0 w3 d w3 0 d  0 w3 d w3 neg 0 d 0 w3 d w3 neg 0 d 0 w3 neg d w3 neg 0 d cl f } def
/m35 {mp x y w2 add m w2 neg w2 neg d w2 w2 neg d w2 w2 d w2 neg w2 d x y w2 sub m 0 w d x w2 sub y m w 0 d s} def
/m36 {mb x w2 sub y w2 add m w w neg d x w2 sub y w2 sub m w w d s} def
/m37 {mp x y m w4 neg w2 d w4 neg w2 neg d w2 0 d  w4 neg w2 neg d w2 0 d w4 neg w2 d w2 0 d w4 neg w2 d w4 neg w2 neg d cl s} def
/m38 {mp x w4 sub y w2 add m w4 neg w4 neg d 0 w2 neg d w4 w4 neg d w2 0 d w4 w4 d 0 w2 d w4 neg w4 d w2 neg 0 d x y w2 sub m 0 w d x w2 sub y m w 0 d cl s} def
/m39 {mp x y m w4 neg w2 d w4 neg w2 neg d w2 0 d  w4 neg w2 neg d w2 0 d w4 neg w2 d w2 0 d w4 neg w2 d w4 neg w2 neg d cl f} def
/m40 {mp x y m w4 w2 d w4 w4 neg d w2 neg w4 neg d w2 w4 neg d w4 neg w4 neg d w4 neg w2 d w4 neg w2 neg d w4 neg w4 d w2 w4 d w2 neg w4 d w4 w4 d w4 w2 neg d cl s} def
/m41 {mp x y m w4 w2 d w4 w4 neg d w2 neg w4 neg d w2 w4 neg d w4 neg w4 neg d w4 neg w2 d w4 neg w2 neg d w4 neg w4 d w2 w4 d w2 neg w4 d w4 w4 d w4 w2 neg d cl f} def
/m42 {mp x y w2 add m w8 neg w2 -3 4 div mul d w2 -3 4 div mul w8 neg d w2 3 4 div mul w8 neg d w8 w2 -3 4 div mul d w8 w2 3 4 div mul d w2 3 4 div mul w8 d w2 -3 4 div mul w8 d w8 neg w2 3 4 div mul d cl s} def
/m43 {mp x y w2 add m w8 neg w2 -3 4 div mul d w2 -3 4 div mul w8 neg d w2 3 4 div mul w8 neg d w8 w2 -3 4 div mul d w8 w2 3 4 div mul d w2 3 4 div mul w8 d w2 -3 4 div mul w8 d w8 neg w2 3 4 div mul d cl f} def
/m44 {mp x y m w6 neg w2 d w2 2 3 div mul 0 d w6 neg w2 neg d w2 w6 d 0 w2 -2 3 div mul d w2 neg w6 d w6 w2 neg d w2 -2 3 div mul 0 d w6 w2 d w2 neg w6 neg d 0 w2 2 3 div mul d w2 w6 neg d cl s} def
/m45 {mp x y m w6 neg w2 d w2 2 3 div mul 0 d w6 neg w2 neg d w2 w6 d 0 w2 -2 3 div mul d w2 neg w6 d w6 w2 neg d w2 -2 3 div mul 0 d w6 w2 d w2 neg w6 neg d 0 w2 2 3 div mul d w2 w6 neg d cl f} def
/m46 {mp x y w4 add m w4 neg w4 d w4 neg w4 neg d  w4 w4 neg d w4 neg w4 neg d w4 w4 neg d w4 w4 d w4 w4 neg d w4 w4 d w4 neg w4 d w4 w4 d w4 neg w4 d w4 neg w4 neg d cl s} def
/m47 {mp x y w4 add m w4 neg w4 d w4 neg w4 neg d w4 w4 neg d w4 neg w4 neg d  w4 w4 neg d w4 w4 d w4 w4 neg d w4 w4 d w4 neg w4 d w4 w4 d w4 neg w4 d w4 neg w4 neg d cl f} def
/m48 {mp x y w4 add m w4 neg w4 d w4 neg w4 neg d w4 w4 neg d  w4 neg w4 neg d w4 w4 neg d w4 w4 d w4 w4 neg d w4 w4 d w4 neg w4 d w4 w4 d w4 neg w4 d w4 neg w4 neg d  w4 w4 neg d w4 neg w4 neg d w4 neg w4 d w4 w4 d cl f} def
/m49 {mp x w2 sub w3 add y w2 sub w3 add m  0 w3 neg d w3 0 d 0 w3 d w3 0 d 0 w3 d w3 neg 0 d 0 w3 d w3 neg 0 d 0 w3 neg d w3 neg 0 d 0 w3 neg d w3 0 d 0 w3 d w3 0 d 0 w3 neg d w3 neg 0 d cl f } def
/m2 {mp x y w2 sub m 0 w d x w2 sub y m w 0 d s} def
/m5 {mp x w2 sub y w2 sub m w w d x w2 sub y w2 add m w w neg d s} def
%%IncludeResource: ProcSet (FontSetInit)
%%IncludeResource: font Times-Roman
%%IncludeResource: font Times-Italic
%%IncludeResource: font Times-Bold
%%IncludeResource: font Times-BoldItalic
%%IncludeResource: font Helvetica
%%IncludeResource: font Helvetica-Oblique
%%IncludeResource: font Helvetica-Bold
%%IncludeResource: font Helvetica-BoldOblique
%%IncludeResource: font Courier
%%IncludeResource: font Courier-Oblique
%%IncludeResource: font Courier-Bold
%%IncludeResource: font Courier-BoldOblique
%%IncludeResource: font Symbol
%%IncludeResource: font ZapfDingbats
/reEncode {exch findfont dup length dict begin {1 index /FID eq  {pop pop} {def} ifelse } forall /Encoding exch def currentdict end dup /FontName get exch definefont pop } def [/Times-Bold /Times-Italic /Times-BoldItalic /Helvetica /Helvetica-Oblique
 /Helvetica-Bold /Helvetica-BoldOblique /Courier /Courier-Oblique /Courier-Bold /Courier-BoldOblique /Times-Roman /AvantGarde-Book /AvantGarde-BookOblique /AvantGarde-Demi /AvantGarde-DemiOblique /Bookman-Demi /Bookman-DemiItalic /Bookman-Light
 /Bookman-LightItalic /Helvetica-Narrow /Helvetica-Narrow-Bold /Helvetica-Narrow-BoldOblique /Helvetica-Narrow-Oblique /NewCenturySchlbk-Roman /NewCenturySchlbk-Bold /NewCenturySchlbk-BoldItalic /NewCenturySchlbk-Italic /Palatino-Bold
 /Palatino-BoldItalic /Palatino-Italic /Palatino-Roman ] {ISOLatin1Encoding reEncode } forall
%%EndProlog
%%BeginSetup
%%EndSetup
newpath  gsave  .25 .25 scale  gsave  0 0 t black[  ] 0 sd 3 lw 1 1 1 c 2268 1722 0 0 bf black 1 1 1 c 1444 1267 368 283 bf black 1444 1267 368 283 bl 1 1 1 c 1444 1267 368 283 bf black 1444 1267 368 283 bl 0 0 0.6 c 6 lw 1 1 1 c black 0 0 0.6 c 368
 283 m 1444 X s black 3 lw 368 283 m 1444 X s 368 316 m -33 Y s 426 300 m -17 Y s 483 300 m -17 Y s 541 300 m -17 Y s 599 300 m -17 Y s 657 316 m -33 Y s 715 300 m -17 Y s 772 300 m -17 Y s 830 300 m -17 Y s 888 300 m -17 Y s 946 316 m -33 Y s 1003
 300 m -17 Y s 1061 300 m -17 Y s 1119 300 m -17 Y s 1177 300 m -17 Y s 1235 316 m -33 Y s 1292 300 m -17 Y s 1350 300 m -17 Y s 1408 300 m -17 Y s 1466 300 m -17 Y s 1523 316 m -33 Y s 1581 300 m -17 Y s 1639 300 m -17 Y s 1697 300 m -17 Y s 1755
 300 m -17 Y s 1812 316 m -33 Y s
 gsave  2268 1722 0 0 C 343.776 183.95 t 0 r /Times-Roman findfont 96.4986 sf 0 0 m (0) show NC gr 
 gsave  2268 1722 0 0 C 633.272 183.95 t 0 r /Times-Roman findfont 96.4986 sf 0 0 m (1) show NC gr 
 gsave  2268 1722 0 0 C 919.752 183.95 t 0 r /Times-Roman findfont 96.4986 sf 0 0 m (2) show NC gr 
 gsave  2268 1722 0 0 C 1212.26 183.95 t 0 r /Times-Roman findfont 96.4986 sf 0 0 m (3) show NC gr 
 gsave  2268 1722 0 0 C 1498.74 183.95 t 0 r /Times-Roman findfont 96.4986 sf 0 0 m (4) show NC gr 
 gsave  2268 1722 0 0 C 1788.24 183.95 t 0 r /Times-Roman findfont 96.4986 sf 0 0 m (5) show NC gr 
 gsave  2268 1722 0 0 C 1755.07 81.4207 t 0 r /Times-Roman findfont 114.592 sf 0 0 m (y) show NC gr  368 283 m 1267 Y s 418 283 m -50 X s 393 309 m -25 X s 393 334 m -25 X s 393 359 m -25 X s 393 385 m -25 X s 418 410 m -50 X s 393 435 m -25 X s 393
 461 m -25 X s 393 486 m -25 X s 393 511 m -25 X s 418 537 m -50 X s 393 562 m -25 X s 393 587 m -25 X s 393 613 m -25 X s 393 638 m -25 X s 418 663 m -50 X s 393 689 m -25 X s 393 714 m -25 X s 393 739 m -25 X s 393 765 m -25 X s 418 790 m -50 X s
 393 815 m -25 X s 393 841 m -25 X s 393 866 m -25 X s 393 891 m -25 X s 418 917 m -50 X s 393 942 m -25 X s 393 967 m -25 X s 393 993 m -25 X s 393 1018 m -25 X s 418 1043 m -50 X s 393 1069 m -25 X s 393 1094 m -25 X s 393 1119 m -25 X s 393 1145 m
 -25 X s 418 1170 m -50 X s 393 1195 m -25 X s 393 1220 m -25 X s 393 1246 m -25 X s 393 1271 m -25 X s 418 1296 m -50 X s 393 1322 m -25 X s 393 1347 m -25 X s 393 1372 m -25 X s 393 1398 m -25 X s 418 1423 m -50 X s 393 1448 m -25 X s 393 1474 m
 -25 X s 393 1499 m -25 X s 393 1524 m -25 X s 418 1550 m -50 X s
 gsave  2268 1722 0 0 C 295.527 250.293 t 0 r /Times-Roman findfont 96.4986 sf 0 0 m (0) show NC gr 
 gsave  2268 1722 0 0 C 226.169 373.932 t 0 r /Times-Roman findfont 96.4986 sf 0 0 m (0.5) show NC gr 
 gsave  2268 1722 0 0 C 304.574 500.586 t 0 r /Times-Roman findfont 96.4986 sf 0 0 m (1) show NC gr 
 gsave  2268 1722 0 0 C 226.169 627.241 t 0 r /Times-Roman findfont 96.4986 sf 0 0 m (1.5) show NC gr 
 gsave  2268 1722 0 0 C 295.527 753.895 t 0 r /Times-Roman findfont 96.4986 sf 0 0 m (2) show NC gr 
 gsave  2268 1722 0 0 C 226.169 880.549 t 0 r /Times-Roman findfont 96.4986 sf 0 0 m (2.5) show NC gr 
 gsave  2268 1722 0 0 C 301.558 1010.22 t 0 r /Times-Roman findfont 96.4986 sf 0 0 m (3) show NC gr 
 gsave  2268 1722 0 0 C 226.169 1133.86 t 0 r /Times-Roman findfont 96.4986 sf 0 0 m (3.5) show NC gr 
 gsave  2268 1722 0 0 C 295.527 1260.51 t 0 r /Times-Roman findfont 96.4986 sf 0 0 m (4) show NC gr 
 gsave  2268 1722 0 0 C 226.169 1387.17 t 0 r /Times-Roman findfont 96.4986 sf 0 0 m (4.5) show NC gr 
 gsave  2268 1722 0 0 C 298.542 1513.82 t 0 r /Times-Roman findfont 96.4986 sf 0 0 m (5) show NC gr 
 gsave  2268 1722 0 0 C 144.748 1157.98 t 90 r /Times-Roman findfont 114.592 sf 0 0 m (/dy [mb]) show NC gr 
 gsave  2268 1722 0 0 C 144.748 1088.62 t 90 r /Symbol findfont 114.592 sf 0 0 m (s) show NC gr 
 gsave  2268 1722 0 0 C 144.748 1031.33 t 90 r /Times-Roman findfont 114.592 sf 0 0 m (d) show NC gr  1 0.2 0.2 c 12 lw 1 1 1 c black 1 0.2 0.2 c 368 1398 m cl s 368 1398 m 29 -1 d 29 -2 d 29 -3 d 28 -5 d 29 -5 d 29 -6 d 29 -8 d 29 -8 d 29 -10 d 29
 -13 d 29 -15 d 29 -15 d 28 -15 d 29 -17 d 29 -19 d 29 -21 d 29 -23 d 29 -22 d 29 -22 d 29 -23 d 29 -26 d 28 -25 d 29 -26 d 29 -27 d 29 -26 d 29 -27 d 29 -26 d 29 -27 d 29 -26 d 29 -25 d 28 -25 d 29 -25 d 29 -24 d 29 -26 d 29 -24 d 29 -24 d 29 -25 d
 29 -25 d 29 -27 d 28 -28 d 29 -30 d 29 -32 d 29 -34 d 29 -35 d 29 -37 d 29 -36 d 29 -34 d 29 -32 d 23 -21 d 5 -5 d 22 -16 d 7 -5 d s 0.83 0.35 0.33 c 1 1 1 c black 0.83 0.35 0.33 c 368 1036 m cl s 368 1036 m 29 X 29 -1 d 29 -2 d 28 -3 d 29 -3 d 29
 -3 d 29 -4 d 29 -4 d 29 -5 d 29 -7 d 29 -10 d 29 -11 d 28 -10 d 29 -9 d 29 -11 d 29 -11 d 29 -11 d 29 -9 d 29 -11 d 29 -10 d 29 -12 d 28 -11 d 29 -13 d 29 -13 d 29 -13 d 29 -13 d 29 -12 d 29 -14 d 29 -14 d 29 -13 d 28 -14 d 29 -15 d 29 -15 d 29 -17
 d 29 -18 d 29 -17 d 29 -18 d 29 -20 d 29 -23 d 28 -23 d 29 -25 d 29 -27 d 29 -29 d 29 -31 d 29 -32 d 29 -32 d 29 -31 d 24 -24 d 5 -4 d 20 -18 d 8 -7 d 19 -13 d 10 -6 d s 0.6 0.2 0.2 c 1 1 1 c black 0.6 0.2 0.2 c 368 1305 m cl s 368 1305 m 29 -1 d 29
 -2 d 29 -3 d 28 -4 d 29 -6 d 29 -7 d 29 -7 d 29 -9 d 29 -10 d 29 -11 d 29 -12 d 29 -14 d 28 -14 d 29 -16 d 29 -17 d 29 -18 d 29 -21 d 29 -20 d 29 -21 d 29 -22 d 29 -23 d 28 -23 d 29 -24 d 29 -24 d 29 -24 d 29 -23 d 29 -22 d 29 -22 d 29 -21 d 29 -19
 d 28 -18 d 29 -17 d 29 -15 d 29 -15 d 29 -12 d 29 -14 d 29 -12 d 29 -14 d 29 -15 d 28 -18 d 25 -17 d 4 -4 d 23 -20 d 6 -6 d 23 -24 d 6 -7 d 22 -28 d 7 -9 d 29 -42 d 29 -46 d 29 -47 d 29 -45 d 19 -27 d 9 -12 d 17 -18 d 12 -13 d s black
 gsave  2268 1722 0 0 C 1869.66 1486.68 t 0 r /Times-Roman findfont 48.2493 sf 0 0 m (Guzey et al.) show NC gr 
 gsave  2268 1722 0 0 C 1960.13 1375.1 t 0 r /Times-Roman findfont 48.2493 sf 0 0 m (LTA_W) show NC gr  1 0.2 0.2 c 1875 1388 m 71 X s black
 gsave  2268 1722 0 0 C 1960.13 1266.54 t 0 r /Times-Roman findfont 48.2493 sf 0 0 m (LTA_S) show NC gr  0.83 0.35 0.33 c 1875 1281 m 71 X s black
 gsave  2268 1722 0 0 C 1960.13 1154.97 t 0 r /Times-Roman findfont 48.2493 sf 0 0 m (EPS09) show NC gr  0.6 0.2 0.2 c 1875 1173 m 71 X s black 6 lw 1 1 1 c 408 344 1860 775 bf black
 gsave  2268 1722 0 0 C 1869.66 1046.41 t 0 r /Times-Roman findfont 48.2493 sf 0 0 m (Goncalves et al.) show NC gr 
 gsave  2268 1722 0 0 C 1960.13 931.814 t 0 r /Times-Roman findfont 48.2493 sf 0 0 m (IP\255SAT+GLC) show NC gr  0 0 1 c 12 lw 1875 947 m 71 X s black
 gsave  2268 1722 0 0 C 1960.13 814.207 t 0 r /Times-Roman findfont 48.2493 sf 0 0 m (IIM+BG) show NC gr  0.2 0.2 0.6 c[ 12 12] 0 sd 1875 832 m 71 X s 1 1 1 c black 0.2 0.2 0.6 c 879 1550 m 69 -91 d s 948 1459 m 82 -117 d 83 -120 d 83 -113 d 83 -120
 d 83 -121 d 83 -128 d 82 -124 d 83 -98 d s 0 0 1 c[  ] 0 sd 1 1 1 c black 0 0 1 c 368 1411 m cl s 368 1411 m 83 -6 d 83 -19 d 82 -31 d 83 -44 d 83 -56 d 83 -66 d 83 -76 d 82 -81 d 83 -84 d 83 -81 d 83 -73 d 83 -77 d 83 -83 d 82 -75 d 83 -62 d s 0
 0.6 0 c 1 1 1 c black 0 0.6 0 c 368 1434 m cl s 368 1434 m 34 -1 d 24 -2 d 33 -4 d 24 -4 d 33 -8 d 25 -7 d 34 -11 d 24 -10 d 34 -15 d 24 -12 d 58 -32 d 30 -15 d 20 -11 d 7 -4 d 22 -15 d 36 -28 d 38 -29 d 20 -18 d 16 -16 d 42 -48 d 20 -19 d 37 -33 d
 58 -54 d 58 -52 d 58 -51 d 40 -33 d 18 -14 d 35 -26 d 22 -16 d 38 -25 d 20 -11 d 19 -8 d 39 -15 d 58 -26 d 29 -10 d s 0.2 1 0.2 c[ 12 12] 0 sd 1 1 1 c black 0.2 1 0.2 c 368 1065 m cl s 368 1065 m 29 -1 d 29 -2 d 29 -3 d 28 -4 d 27 -3 d 2 X 29 -8 d
 29 -6 d 29 -8 d 29 -9 d 29 -9 d 24 -8 d 5 -2 d 29 -13 d 28 -11 d 29 -15 d 29 -13 d 29 -15 d 29 -15 d 29 -17 d 29 -16 d 29 -18 d 29 -17 d 28 -17 d 29 -19 d 29 -17 d 29 -18 d 29 -18 d 29 -16 d 29 -18 d 29 -15 d 29 -15 d 28 -15 d 29 -13 d 29 -13 d 29
 -11 d 29 -12 d 29 -8 d 29 -9 d 29 -8 d 29 -8 d 28 -7 d 23 -7 d 6 -2 d s black[  ] 0 sd 6 lw 1 1 1 c 408 345 1860 430 bf black
 gsave  2268 1722 0 0 C 1869.66 705.646 t 0 r /Times-Roman findfont 48.2493 sf 0 0 m (Cepila et al.) show NC gr 
 gsave  2268 1722 0 0 C 1960.13 585.023 t 0 r /Times-Roman findfont 48.2493 sf 0 0 m (GG\255hs+BG) show NC gr  0 0.6 0 c 12 lw 1875 603 m 71 X s black
 gsave  2268 1722 0 0 C 1960.13 470.431 t 0 r /Times-Roman findfont 48.2493 sf 0 0 m (GS\255hs+BG) show NC gr  0.2 1 0.2 c[ 12 12] 0 sd 1875 488 m 71 X s 0.8 0 1 c[  ] 0 sd 1 1 1 c black 0.8 0 1 c 368 1531 m cl s 368 1531 m 29 X 29 -4 d 29 -4 d 28 -3
 d 29 -9 d 29 -10 d 29 -11 d 29 -10 d 29 -11 d 29 -18 d 29 -19 d 29 -18 d 28 -16 d 29 -18 d 29 -26 d 29 -27 d 29 -25 d 29 -21 d 29 -23 d 29 -33 d 29 -33 d 28 -28 d 29 -23 d 29 -26 d 29 -36 d 29 -36 d 29 -27 d 29 -20 d 29 -22 d 29 -34 d 28 -33 d 29
 -19 d 29 -10 d 29 -11 d s 0.4 0 0.6 c 1 1 1 c black 0.4 0 0.6 c 368 773 m cl s 368 773 m 144 -8 d 145 -22 d 144 -36 d 145 -47 d 144 -59 d 145 -44 d s black 6 lw 1 1 1 c 408 344 1860 86 bf black
 gsave  2268 1722 0 0 C 1932.99 358.854 t 0 r /Times-Roman findfont 48.2493 sf 0 0 m (ntysaari et al.) show NC gr 
 gsave  2268 1722 0 0 C 1911.88 358.854 t 0 r /Times-Roman findfont 48.2493 sf 0 0 m (a) show NC gr  3 lw 1912 386 m 6 X s 1930 386 m -6 X s
 gsave  2268 1722 0 0 C 1869.66 358.854 t 0 r /Times-Roman findfont 48.2493 sf 0 0 m (M) show NC gr 
 gsave  2268 1722 0 0 C 1960.13 241.246 t 0 r /Times-Roman findfont 48.2493 sf 0 0 m (IS fluct. +GLC) show NC gr  0.8 0 1 c 12 lw 1875 258 m 71 X s black
 gsave  2268 1722 0 0 C 1960.13 126.654 t 0 r /Times-Roman findfont 48.2493 sf 0 0 m (no fluct. +GLC) show NC gr  0.4 0 0.6 c 1875 143 m 71 X s black 6 lw 1006 856 m -60 X s 946 850 m 12 Y s 1030 856 m 60 X s 1090 850 m 12 Y s 1018 868 m 99 Y s 1012
 967 m 12 X s 1018 844 m -99 Y s 1012 745 m 12 X s 1150 819 m -60 X s 1090 813 m 12 Y s 1174 819 m 61 X s 1235 813 m 12 Y s 1162 831 m 75 Y s 1156 906 m 12 X s 1162 807 m -75 Y s 1156 732 m 12 X s 1295 807 m -60 X s 1235 801 m 12 Y s 1319 807 m 60 X
 s 1379 801 m 12 Y s 1307 819 m 71 Y s 1301 890 m 12 X s 1307 795 m -71 Y s 1301 724 m 12 X s 1439 693 m -60 X s 1379 687 m 12 Y s 1463 693 m 60 X s 1523 687 m 12 Y s 1451 705 m 57 Y s 1445 762 m 12 X s 1451 681 m -58 Y s 1445 623 m 12 X s 1584 520 m
 -61 X s 1523 514 m 12 Y s 1608 520 m 60 X s 1668 514 m 12 Y s 1596 532 m 58 Y s 1590 590 m 12 X s 1596 508 m -58 Y s 1590 450 m 12 X s 1 1 1 c black 3 lw /w 24 def /w2 {w 2 div} def /w3 {w 3 div} def 1018 856 1162 819 1307 807 1451 693 1596 520 5 {
 m20} R 6 lw
 gsave  2268 1722 0 0 C 1456.53 1284.64 t 0 r /Times-Roman findfont 48.2493 sf 0 0 m (=5 TeV) show NC gr 
 gsave  2268 1722 0 0 C 1408.28 1266.54 t 0 r /Times-Roman findfont 33.1714 sf 0 0 m (NN) show NC gr 
 gsave  2268 1722 0 0 C 1390.18 1284.64 t 0 r /Times-Roman findfont 48.2493 sf 0 0 m (s) show NC gr  1372 1309 m 6 -45 d s 3 lw 1378 1264 m 6 57 d s 1384 1321 m 73 X s
 gsave  2268 1722 0 0 C 1233.37 1284.64 t 0 r /Times-Roman findfont 48.2493 sf 0 0 m (Pb\255Pb ) show NC gr  6 lw 1111 1291 m 103 X s 3 lw 1162 1291 m20 6 lw 1 1 1 c 567 103 1111 1395 bf black
 gsave  2268 1722 0 0 C 1136.87 1429.39 t 0 r /Times-Roman findfont 69.3584 sf 0 0 m (LHCb Preliminary) show NC gr 
 gr  gr showpage
end
%%EOF
